{
    "asset" : {
        "generator" : "Khronos glTF Blender I/O v1.1.45",
        "version" : "2.0"
    },
    "scene" : 0,
    "scenes" : [
        {
            "name" : "Scene",
            "nodes" : [
                0,
                1
            ]
        }
    ],
    "nodes" : [
        {
            "name" : "Camera",
            "rotation" : [
                0.5687056183815002,
                0.16414348781108856,
                -0.11705972999334335,
                0.797450840473175
            ],
            "translation" : [
                0.6361395120620728,
                0.13472843170166016,
                2.7591323852539062
            ]
        },
        {
            "mesh" : 0,
            "name" : "globe",
            "rotation" : [
                -0.102814219892025,
                0.02245098352432251,
                -0.17397502064704895,
                0.9791107773780823
            ]
        }
    ],
    "materials" : [
        {
            "doubleSided" : true,
            "emissiveFactor" : [
                0,
                0,
                0
            ],
            "name" : "globe",
            "pbrMetallicRoughness" : {
                "baseColorTexture" : {
                    "index" : 0,
                    "texCoord" : 0
                },
                "metallicFactor" : 0,
                "roughnessFactor" : 0.8370000123977661
            }
        }
    ],
    "meshes" : [
        {
            "name" : "Sphere.000",
            "primitives" : [
                {
                    "attributes" : {
                        "POSITION" : 0,
                        "NORMAL" : 1,
                        "TEXCOORD_0" : 2
                    },
                    "indices" : 3,
                    "material" : 0
                }
            ]
        }
    ],
    "textures" : [
        {
            "source" : 0
        }
    ],
    "images" : [
        {
            "mimeType" : "image/jpeg",
            "name" : "World-Atlas1.jpg.001",
            "uri" : "World-Atlas1_jpg_001-new.jpg"
        }
    ],
    "accessors" : [
        {
            "bufferView" : 0,
            "componentType" : 5126,
            "count" : 2529,
            "max" : [
                0.8756323456764221,
                0.8770868182182312,
                0.8770838975906372
            ],
            "min" : [
                -0.8756328821182251,
                -0.8770867586135864,
                -0.8770849704742432
            ],
            "type" : "VEC3"
        },
        {
            "bufferView" : 1,
            "componentType" : 5126,
            "count" : 2529,
            "type" : "VEC3"
        },
        {
            "bufferView" : 2,
            "componentType" : 5126,
            "count" : 2529,
            "type" : "VEC2"
        },
        {
            "bufferView" : 3,
            "componentType" : 5123,
            "count" : 12672,
            "type" : "SCALAR"
        }
    ],
    "bufferViews" : [
        {
            "buffer" : 0,
            "byteLength" : 30348,
            "byteOffset" : 0
        },
        {
            "buffer" : 0,
            "byteLength" : 30348,
            "byteOffset" : 30348
        },
        {
            "buffer" : 0,
            "byteLength" : 20232,
            "byteOffset" : 60696
        },
        {
            "buffer" : 0,
            "byteLength" : 25344,
            "byteOffset" : 80928
        }
    ],
    "buffers" : [
        {
            "byteLength" : 106272,
            "uri" : "globe_no_stand2.bin"
        }
    ]
}
